<?xml version="1.0" encoding="UTF-8" standalone="no"?>
<!-- Created with Inkscape (http://www.inkscape.org/) -->

<svg
   xmlns:dc="http://purl.org/dc/elements/1.1/"
   xmlns:cc="http://creativecommons.org/ns#"
   xmlns:rdf="http://www.w3.org/1999/02/22-rdf-syntax-ns#"
   xmlns:svg="http://www.w3.org/2000/svg"
   xmlns="http://www.w3.org/2000/svg"
   xmlns:sodipodi="http://sodipodi.sourceforge.net/DTD/sodipodi-0.dtd"
   xmlns:inkscape="http://www.inkscape.org/namespaces/inkscape"
   width="210mm"
   height="297mm"
   id="svg2"
   version="1.1"
   inkscape:version="0.48+devel r13414 custom"
   viewBox="0 0 744.09447 1052.3622"
   sodipodi:docname="clientserver.svg">
  <defs
     id="defs4">
    <marker
       inkscape:stockid="Arrow1Lend"
       orient="auto"
       refY="0.0"
       refX="0.0"
       id="marker6862"
       style="overflow:visible;"
       inkscape:isstock="true">
      <path
         id="path6864"
         d="M 0.0,0.0 L 5.0,-5.0 L -12.5,0.0 L 5.0,5.0 L 0.0,0.0 z "
         style="fill-rule:evenodd;stroke:#000000;stroke-width:1pt;stroke-opacity:1;fill:#000000;fill-opacity:1"
         transform="scale(0.8) rotate(180) translate(12.5,0)" />
    </marker>
    <marker
       inkscape:isstock="true"
       style="overflow:visible;"
       id="marker6626"
       refX="0.0"
       refY="0.0"
       orient="auto"
       inkscape:stockid="Arrow1Lend"
       inkscape:collect="always">
      <path
         transform="scale(0.8) rotate(180) translate(12.5,0)"
         style="fill-rule:evenodd;stroke:#000000;stroke-width:1pt;stroke-opacity:1;fill:#000000;fill-opacity:1"
         d="M 0.0,0.0 L 5.0,-5.0 L -12.5,0.0 L 5.0,5.0 L 0.0,0.0 z "
         id="path6628" />
    </marker>
    <inkscape:path-effect
       effect="skeletal"
       id="path-effect4981"
       is_visible="true"
       pattern="m -1.3240689,-150.71429 c 0,-2.76 2.24000008,-5 5.0000001,-5 2.7600001,0 5.0000001,2.24 5.0000001,5 0,2.76 -2.24,5 -5.0000001,5 -2.76000002,0 -5.0000001,-2.24 -5.0000001,-5 z"
       copytype="single_stretched"
       prop_scale="1"
       scale_y_rel="false"
       spacing="0"
       normal_offset="0"
       tang_offset="0"
       prop_units="false"
       vertical_pattern="false"
       fuse_tolerance="0" />
    <marker
       inkscape:stockid="Arrow1Lend"
       orient="auto"
       refY="0.0"
       refX="0.0"
       id="Arrow1Lend"
       style="overflow:visible;"
       inkscape:isstock="true"
       inkscape:collect="always">
      <path
         id="path4407"
         d="M 0.0,0.0 L 5.0,-5.0 L -12.5,0.0 L 5.0,5.0 L 0.0,0.0 z "
         style="fill-rule:evenodd;stroke:#000000;stroke-width:1pt;stroke-opacity:1;fill:#000000;fill-opacity:1"
         transform="scale(0.8) rotate(180) translate(12.5,0)" />
    </marker>
    <marker
       inkscape:stockid="Arrow1Lstart"
       orient="auto"
       refY="0.0"
       refX="0.0"
       id="marker4680"
       style="overflow:visible"
       inkscape:isstock="true">
      <path
         id="path4682"
         d="M 0.0,0.0 L 5.0,-5.0 L -12.5,0.0 L 5.0,5.0 L 0.0,0.0 z "
         style="fill-rule:evenodd;stroke:#000000;stroke-width:1pt;stroke-opacity:1;fill:#000000;fill-opacity:1"
         transform="scale(0.8) translate(12.5,0)" />
    </marker>
    <marker
       inkscape:stockid="Arrow1Lstart"
       orient="auto"
       refY="0.0"
       refX="0.0"
       id="Arrow1Lstart"
       style="overflow:visible"
       inkscape:isstock="true">
      <path
         id="path4404"
         d="M 0.0,0.0 L 5.0,-5.0 L -12.5,0.0 L 5.0,5.0 L 0.0,0.0 z "
         style="fill-rule:evenodd;stroke:#000000;stroke-width:1pt;stroke-opacity:1;fill:#000000;fill-opacity:1"
         transform="scale(0.8) translate(12.5,0)" />
    </marker>
    <marker
       inkscape:stockid="Arrow1Lstart"
       orient="auto"
       refY="0"
       refX="0"
       id="marker4680-0"
       style="overflow:visible"
       inkscape:isstock="true">
      <path
         inkscape:connector-curvature="0"
         id="path4682-0"
         d="M 0,0 5,-5 -12.5,0 5,5 0,0 Z"
         style="fill:#000000;fill-opacity:1;fill-rule:evenodd;stroke:#000000;stroke-width:1pt;stroke-opacity:1"
         transform="matrix(0.8,0,0,0.8,10,0)" />
    </marker>
    <marker
       inkscape:stockid="Arrow1Lstart"
       orient="auto"
       refY="0"
       refX="0"
       id="marker4680-0-0"
       style="overflow:visible"
       inkscape:isstock="true">
      <path
         inkscape:connector-curvature="0"
         id="path4682-0-1"
         d="M 0,0 5,-5 -12.5,0 5,5 0,0 Z"
         style="fill:#000000;fill-opacity:1;fill-rule:evenodd;stroke:#000000;stroke-width:1pt;stroke-opacity:1"
         transform="matrix(0.8,0,0,0.8,10,0)" />
    </marker>
    <marker
       inkscape:stockid="Arrow1Lend"
       orient="auto"
       refY="0"
       refX="0"
       id="Arrow1Lend-2"
       style="overflow:visible"
       inkscape:isstock="true">
      <path
         inkscape:connector-curvature="0"
         id="path4407-5"
         d="M 0,0 5,-5 -12.5,0 5,5 0,0 Z"
         style="fill:#000000;fill-opacity:1;fill-rule:evenodd;stroke:#000000;stroke-width:1pt;stroke-opacity:1"
         transform="matrix(-0.8,0,0,-0.8,-10,0)" />
    </marker>
  </defs>
  <sodipodi:namedview
     id="base"
     pagecolor="#ffffff"
     bordercolor="#666666"
     borderopacity="1.0"
     inkscape:pageopacity="0.0"
     inkscape:pageshadow="2"
     inkscape:zoom="0.7"
     inkscape:cx="214.87687"
     inkscape:cy="476.36143"
     inkscape:document-units="px"
     inkscape:current-layer="layer1"
     showgrid="false"
     showguides="false"
     inkscape:window-width="1266"
     inkscape:window-height="886"
     inkscape:window-x="474"
     inkscape:window-y="92"
     inkscape:window-maximized="0">
    <inkscape:grid
       type="xygrid"
       id="grid3472" />
  </sodipodi:namedview>
  <metadata
     id="metadata7">
    <rdf:RDF>
      <cc:Work
         rdf:about="">
        <dc:format>image/svg+xml</dc:format>
        <dc:type
           rdf:resource="http://purl.org/dc/dcmitype/StillImage" />
        <dc:title />
      </cc:Work>
    </rdf:RDF>
  </metadata>
  <g
     inkscape:label="Calque 1"
     inkscape:groupmode="layer"
     id="layer1">
    <g
       id="g3562">
      <g
         transform="translate(-18.182746,459.67299)"
         id="g3403">
        <g
           id="g3398">
          <rect
             y="289.75003"
             x="57.387844"
             height="259.51001"
             width="268.08142"
             id="rect3317"
             style="fill:#ffcc00;fill-rule:evenodd;stroke:#000000;stroke-width:1.48999071px;stroke-linecap:butt;stroke-linejoin:miter;stroke-opacity:1" />
          <text
             sodipodi:linespacing="125%"
             id="text3394"
             y="430.08121"
             x="115.12972"
             style="font-style:normal;font-weight:normal;font-size:40px;line-height:125%;font-family:sans-serif;letter-spacing:0px;word-spacing:0px;fill:#000000;fill-opacity:1;stroke:none;stroke-width:1px;stroke-linecap:butt;stroke-linejoin:miter;stroke-opacity:1"
             xml:space="preserve"><tspan
               y="430.08121"
               x="115.12972"
               id="tspan3396"
               sodipodi:role="line">Client 1</tspan></text>
        </g>
        <g
           style="stroke:#000000"
           id="g3378"
           transform="matrix(0.5536913,0,0,0.5536913,-40.891676,49.558564)">
          <g
             style="stroke:#000000"
             id="g3387">
            <g
               style="stroke:#000000"
               transform="translate(14.88312,-4.1471958)"
               id="g3373">
              <rect
                 style="fill:#ffff00;stroke:#000000"
                 id="rect3344"
                 width="205.71428"
                 height="205.71428"
                 x="195.71425"
                 y="353.79074" />
              <text
                 xml:space="preserve"
                 style="font-style:normal;font-weight:normal;font-size:40px;line-height:125%;font-family:sans-serif;letter-spacing:0px;word-spacing:0px;fill:#000000;fill-opacity:1;stroke:#000000;stroke-width:1px;stroke-linecap:butt;stroke-linejoin:miter;stroke-opacity:1"
                 x="224.0856"
                 y="467.81732"
                 id="text3346"
                 sodipodi:linespacing="125%"><tspan
                   sodipodi:role="line"
                   id="tspan3348"
                   x="224.0856"
                   y="467.81732"
                   style="font-size:31.25px;stroke:#000000">Emetteur</tspan></text>
            </g>
            <rect
               style="fill:#ffff00;stroke:#000000"
               id="rect3344-9"
               width="205.71428"
               height="205.71428"
               x="422.85715"
               y="349.50504" />
          </g>
          <text
             sodipodi:linespacing="125%"
             id="text3346-2"
             y="461.60901"
             x="444.17896"
             style="font-style:normal;font-weight:normal;font-size:31.25px;line-height:125%;font-family:sans-serif;letter-spacing:0px;word-spacing:0px;fill:#000000;fill-opacity:1;stroke:#000000;stroke-width:1px;stroke-linecap:butt;stroke-linejoin:miter;stroke-opacity:1"
             xml:space="preserve"><tspan
               y="461.60901"
               x="444.17896"
               id="tspan3348-2"
               sodipodi:role="line">Récepteur</tspan></text>
        </g>
      </g>
      <g
         id="g3448">
        <g
           id="g3398-7"
           transform="translate(270.3887,459.67299)">
          <rect
             y="289.75003"
             x="57.387844"
             height="259.51001"
             width="268.08142"
             id="rect3317-7"
             style="fill:#87aade;fill-rule:evenodd;stroke:#000000;stroke-width:1.48999071px;stroke-linecap:butt;stroke-linejoin:miter;stroke-opacity:1" />
          <text
             sodipodi:linespacing="125%"
             id="text3394-6"
             y="430.08121"
             x="115.28598"
             style="font-style:normal;font-weight:normal;font-size:40px;line-height:125%;font-family:sans-serif;letter-spacing:0px;word-spacing:0px;fill:#000000;fill-opacity:1;stroke:none;stroke-width:1px;stroke-linecap:butt;stroke-linejoin:miter;stroke-opacity:1"
             xml:space="preserve"><tspan
               y="430.08121"
               x="115.28598"
               id="tspan3396-6"
               sodipodi:role="line">Client 2</tspan></text>
        </g>
        <g
           style="stroke:#000000"
           id="g3378-2"
           transform="matrix(0.5536913,0,0,0.5536913,229.49702,509.23155)">
          <g
             style="stroke:#000000"
             id="g3387-1">
            <g
               style="stroke:#000000"
               transform="translate(14.88312,-4.1471958)"
               id="g3373-1">
              <rect
                 style="fill:#80b3ff;stroke:#000000"
                 id="rect3344-98"
                 width="205.71428"
                 height="205.71428"
                 x="195.71425"
                 y="353.79074" />
              <text
                 xml:space="preserve"
                 style="font-style:normal;font-weight:normal;font-size:40px;line-height:125%;font-family:sans-serif;letter-spacing:0px;word-spacing:0px;fill:#000000;fill-opacity:1;stroke:#000000;stroke-width:1px;stroke-linecap:butt;stroke-linejoin:miter;stroke-opacity:1"
                 x="224.0856"
                 y="467.81732"
                 id="text3346-3"
                 sodipodi:linespacing="125%"><tspan
                   sodipodi:role="line"
                   id="tspan3348-7"
                   x="224.0856"
                   y="467.81732"
                   style="font-size:31.25px;stroke:#000000">Emetteur</tspan></text>
            </g>
            <rect
               style="fill:#80b3ff;stroke:#000000"
               id="rect3344-9-9"
               width="205.71428"
               height="205.71428"
               x="422.85715"
               y="349.50504" />
          </g>
          <text
             sodipodi:linespacing="125%"
             id="text3346-2-8"
             y="461.60901"
             x="444.17896"
             style="font-style:normal;font-weight:normal;font-size:31.25px;line-height:125%;font-family:sans-serif;letter-spacing:0px;word-spacing:0px;fill:#000000;fill-opacity:1;stroke:#000000;stroke-width:1px;stroke-linecap:butt;stroke-linejoin:miter;stroke-opacity:1"
             xml:space="preserve"><tspan
               y="461.60901"
               x="444.17896"
               id="tspan3348-2-3"
               sodipodi:role="line">Récepteur</tspan></text>
        </g>
      </g>
    </g>
    <g
       id="g3537"
       transform="translate(1.3240565,155.71429)">
      <g
         id="g3532">
        <path
           style="fill:#f2f2f2;stroke:#000000"
           d="M 317.53125 190.93359 A 98.214285 98.214285 0 0 0 219.31641 289.14844 A 98.214285 98.214285 0 0 0 237.16992 345.40625 L 76.105469 345.40625 L 76.105469 494.9082 L 558.95703 494.9082 L 558.95703 345.40625 L 397.98242 345.40625 A 98.214285 98.214285 0 0 0 415.74609 289.14844 A 98.214285 98.214285 0 0 0 317.53125 190.93359 z "
           transform="translate(-1.3240689,-155.71429)"
           id="rect3335" />
        <g
           style="font-style:normal;font-weight:normal;font-size:40px;line-height:125%;font-family:sans-serif;letter-spacing:0px;word-spacing:0px;fill:#000000;fill-opacity:1;stroke:none;stroke-width:1px;stroke-linecap:butt;stroke-linejoin:miter;stroke-opacity:1"
           id="text3337">
          <path
             d="m 259.80223,240.28067 0,3.84766 q -2.24609,-1.07422 -4.23828,-1.60157 -1.99219,-0.52734 -3.84766,-0.52734 -3.22265,0 -4.98047,1.25 -1.73828,1.25 -1.73828,3.55469 0,1.93359 1.15235,2.92969 1.17187,0.97656 4.41406,1.58203 l 2.38281,0.48828 q 4.41406,0.83984 6.50391,2.96875 2.10937,2.10937 2.10937,5.66406 0,4.23828 -2.85156,6.42578 -2.83203,2.1875 -8.32031,2.1875 -2.07031,0 -4.41406,-0.46875 -2.32422,-0.46875 -4.82422,-1.38672 l 0,-4.0625 q 2.40234,1.34766 4.70703,2.03125 2.30469,0.6836 4.53125,0.6836 3.3789,0 5.21484,-1.32813 1.83594,-1.32812 1.83594,-3.78906 0,-2.14844 -1.32813,-3.35938 -1.30859,-1.21093 -4.3164,-1.8164 l -2.40235,-0.46875 q -4.41406,-0.87891 -6.38671,-2.75391 -1.97266,-1.875 -1.97266,-5.21484 0,-3.86719 2.71484,-6.09375 2.73438,-2.22656 7.51953,-2.22656 2.05079,0 4.17969,0.37109 2.12891,0.37109 4.35547,1.11328 z"
             style=""
             id="path4864" />
          <path
             d="m 286.26707,256.64786 0,1.75781 -16.52343,0 q 0.23437,3.71094 2.22656,5.66406 2.01172,1.9336 5.58594,1.9336 2.07031,0 4.0039,-0.50782 1.95313,-0.50781 3.86719,-1.52343 l 0,3.39843 q -1.93359,0.82032 -3.96484,1.25 -2.03125,0.42969 -4.1211,0.42969 -5.23437,0 -8.30078,-3.04687 -3.04687,-3.04688 -3.04687,-8.24219 0,-5.37109 2.89062,-8.51563 2.91016,-3.16406 7.83203,-3.16406 4.41407,0 6.97266,2.85156 2.57812,2.83204 2.57812,7.71485 z m -3.59375,-1.05469 q -0.0391,-2.94922 -1.66015,-4.70703 -1.60156,-1.75781 -4.25781,-1.75781 -3.00782,0 -4.82422,1.69922 -1.79688,1.69921 -2.07032,4.78515 l 12.8125,-0.0195 z"
             style=""
             id="path4866" />
          <path
             d="m 304.84129,249.96817 q -0.60547,-0.35156 -1.32812,-0.50781 -0.70313,-0.17578 -1.5625,-0.17578 -3.04688,0 -4.6875,1.99218 -1.6211,1.97266 -1.6211,5.6836 l 0,11.52344 -3.61328,0 0,-21.875 3.61328,0 0,3.39843 q 1.13282,-1.99218 2.94922,-2.94922 1.81641,-0.97656 4.41407,-0.97656 0.37109,0 0.82031,0.0586 0.44922,0.0391 0.99609,0.13671 l 0.0195,3.69141 z"
             style=""
             id="path4868" />
          <path
             d="m 306.07176,246.6088 3.8086,0 6.83593,18.35937 6.83594,-18.35937 3.80859,0 -8.20312,21.875 -4.88281,0 -8.20313,-21.875 z"
             style=""
             id="path4870" />
          <path
             d="m 351.0327,256.64786 0,1.75781 -16.52344,0 q 0.23438,3.71094 2.22656,5.66406 2.01172,1.9336 5.58594,1.9336 2.07031,0 4.00391,-0.50782 1.95312,-0.50781 3.86719,-1.52343 l 0,3.39843 q -1.9336,0.82032 -3.96485,1.25 -2.03125,0.42969 -4.12109,0.42969 -5.23438,0 -8.30078,-3.04687 -3.04688,-3.04688 -3.04688,-8.24219 0,-5.37109 2.89063,-8.51563 2.91015,-3.16406 7.83203,-3.16406 4.41406,0 6.97265,2.85156 2.57813,2.83204 2.57813,7.71485 z m -3.59375,-1.05469 q -0.0391,-2.94922 -1.66016,-4.70703 -1.60156,-1.75781 -4.25781,-1.75781 -3.00781,0 -4.82422,1.69922 -1.79687,1.69921 -2.07031,4.78515 l 12.8125,-0.0195 z"
             style=""
             id="path4872" />
          <path
             d="m 356.56004,259.85098 0,-13.24218 3.59375,0 0,13.10546 q 0,3.10547 1.21094,4.66797 1.21094,1.54297 3.63281,1.54297 2.91016,0 4.58985,-1.85547 1.69922,-1.85547 1.69922,-5.05859 l 0,-12.40234 3.59375,0 0,21.875 -3.59375,0 0,-3.35938 q -1.3086,1.99219 -3.04688,2.96875 -1.71875,0.95703 -4.00391,0.95703 -3.76953,0 -5.72265,-2.34375 -1.95313,-2.34375 -1.95313,-6.85547 z m 9.04297,-13.76953 0,0 z"
             style=""
             id="path4874" />
          <path
             d="m 394.99754,249.96817 q -0.60547,-0.35156 -1.32812,-0.50781 -0.70313,-0.17578 -1.5625,-0.17578 -3.04688,0 -4.6875,1.99218 -1.6211,1.97266 -1.6211,5.6836 l 0,11.52344 -3.61328,0 0,-21.875 3.61328,0 0,3.39843 q 1.13282,-1.99218 2.94922,-2.94922 1.81641,-0.97656 4.41407,-0.97656 0.37109,0 0.82031,0.0586 0.44922,0.0391 0.99609,0.13671 l 0.0195,3.69141 z"
             style=""
             id="path4876" />
        </g>
        <text
           xml:space="preserve"
           style="font-style:normal;font-weight:normal;font-size:31.25000052px;line-height:125%;font-family:sans-serif;letter-spacing:0px;word-spacing:0px;fill:#000000;fill-opacity:1;stroke:none;stroke-width:1px;stroke-linecap:butt;stroke-linejoin:miter;stroke-opacity:1;text-anchor:middle;text-align:center"
           x="312.2814"
           y="142.81013"
           id="text4967"
           sodipodi:linespacing="125%"><tspan
             sodipodi:role="line"
             id="tspan4969"
             x="243.67789"
             y="142.81013">Moteur</tspan></text>
      </g>
      <g
         transform="translate(-17.142857,-90.000001)"
         id="g3490">
        <g
           id="g3480">
          <g
             style="stroke:#000000"
             id="g3387-1-2"
             transform="matrix(0.5536913,0,0,0.5536913,234.37024,190.20748)">
            <g
               style="stroke:#000000"
               transform="translate(14.88312,-4.1471958)"
               id="g3373-1-4">
              <path
                 style="fill:#80b3ff;stroke:#000000"
                 d="m 195.71425,353.79074 205.71428,0 0,205.71428 -205.71428,0 z"
                 id="rect3344-98-4" />
              <g
                 style="font-style:normal;font-weight:normal;font-size:40px;line-height:125%;font-family:sans-serif;letter-spacing:0px;word-spacing:0px;fill:#000000;fill-opacity:1;stroke:#000000;stroke-width:1px;stroke-linecap:butt;stroke-linejoin:miter;stroke-opacity:1"
                 id="text3346-3-1">
                <path
                   d="m 227.15262,445.03595 14.4043,0 0,2.59399 -11.32203,0 0,6.74439 10.849,0 0,2.59399 -10.849,0 0,8.25501 11.59668,0 0,2.59399 -14.67895,0 0,-22.78137 z"
                   style="font-size:31.25px;stroke:#000000"
                   id="path4880" />
                <path
                   d="m 260.1116,454.00812 q 1.05286,-1.89209 2.5177,-2.79236 1.46485,-0.90027 3.44849,-0.90027 2.67029,0 4.11987,1.87683 1.44959,1.86157 1.44959,5.31006 l 0,10.31494 -2.82288,0 0,-10.22339 q 0,-2.45666 -0.86975,-3.64685 -0.86975,-1.19018 -2.65503,-1.19018 -2.18201,0 -3.44849,1.44958 -1.26647,1.44959 -1.26647,3.95203 l 0,9.65881 -2.82288,0 0,-10.22339 q 0,-2.47192 -0.86975,-3.64685 -0.86975,-1.19018 -2.68555,-1.19018 -2.15149,0 -3.41797,1.46484 -1.26648,1.44959 -1.26648,3.93677 l 0,9.65881 -2.82287,0 0,-17.08984 2.82287,0 0,2.65503 q 0.96131,-1.57166 2.30408,-2.31934 1.34277,-0.74768 3.18909,-0.74768 1.86157,0 3.15857,0.94605 1.31225,0.94604 1.93786,2.74658 z"
                   style="font-size:31.25px;stroke:#000000"
                   id="path4882" />
                <path
                   d="m 291.8804,458.5705 0,1.37329 -12.90893,0 q 0.1831,2.89917 1.7395,4.42505 1.57165,1.51062 4.36401,1.51062 1.61743,0 3.12805,-0.39673 1.52588,-0.39673 3.02124,-1.19019 l 0,2.65503 q -1.51062,0.64087 -3.09753,0.97656 -1.58691,0.3357 -3.2196,0.3357 -4.08936,0 -6.48499,-2.38037 -2.38037,-2.38038 -2.38037,-6.43921 0,-4.19617 2.2583,-6.65284 2.27356,-2.47192 6.11877,-2.47192 3.44849,0 5.44739,2.22778 2.01416,2.21253 2.01416,6.02723 z m -2.80762,-0.82398 q -0.0305,-2.30408 -1.29699,-3.67737 -1.25122,-1.37329 -3.32642,-1.37329 -2.34985,0 -3.76892,1.32752 -1.40381,1.32751 -1.61743,3.7384 l 10.00976,-0.0153 z"
                   style="font-size:31.25px;stroke:#000000"
                   id="path4884" />
                <path
                   d="m 299.26566,445.87518 0,4.8523 5.78308,0 0,2.182 -5.78308,0 0,9.27735 q 0,2.09045 0.56457,2.68555 0.57983,0.59509 2.3346,0.59509 l 2.88391,0 0,2.34985 -2.88391,0 q -3.25013,0 -4.48609,-1.20544 -1.23596,-1.22071 -1.23596,-4.42505 l 0,-9.27735 -2.05994,0 0,-2.182 2.05994,0 0,-4.8523 2.82288,0 z"
                   style="font-size:31.25px;stroke:#000000"
                   id="path4886" />
                <path
                   d="m 311.53372,445.87518 0,4.8523 5.78308,0 0,2.182 -5.78308,0 0,9.27735 q 0,2.09045 0.56458,2.68555 0.57983,0.59509 2.33459,0.59509 l 2.88391,0 0,2.34985 -2.88391,0 q -3.25012,0 -4.48608,-1.20544 -1.23596,-1.22071 -1.23596,-4.42505 l 0,-9.27735 -2.05994,0 0,-2.182 2.05994,0 0,-4.8523 2.82287,0 z"
                   style="font-size:31.25px;stroke:#000000"
                   id="path4888" />
                <path
                   d="m 335.64261,458.5705 0,1.37329 -12.90894,0 q 0.18311,2.89917 1.73951,4.42505 1.57165,1.51062 4.36401,1.51062 1.61743,0 3.12805,-0.39673 1.52588,-0.39673 3.02124,-1.19019 l 0,2.65503 q -1.51062,0.64087 -3.09753,0.97656 -1.58692,0.3357 -3.21961,0.3357 -4.08935,0 -6.48498,-2.38037 -2.38037,-2.38038 -2.38037,-6.43921 0,-4.19617 2.2583,-6.65284 2.27356,-2.47192 6.11877,-2.47192 3.44849,0 5.44739,2.22778 2.01416,2.21253 2.01416,6.02723 z m -2.80762,-0.82398 q -0.0305,-2.30408 -1.297,-3.67737 -1.25122,-1.37329 -3.32641,-1.37329 -2.34986,0 -3.76892,1.32752 -1.40381,1.32751 -1.61743,3.7384 l 10.00976,-0.0153 z"
                   style="font-size:31.25px;stroke:#000000"
                   id="path4890" />
                <path
                   d="m 339.96085,461.07294 0,-10.34546 2.80761,0 0,10.23865 q 0,2.42614 0.94605,3.64685 0.94604,1.20544 2.83813,1.20544 2.27356,0 3.58582,-1.44958 1.32751,-1.44959 1.32751,-3.95203 l 0,-9.68933 2.80762,0 0,17.08984 -2.80762,0 0,-2.62451 q -1.02234,1.5564 -2.38037,2.31934 -1.34277,0.74768 -3.12805,0.74768 -2.94495,0 -4.47083,-1.83106 -1.52587,-1.83105 -1.52587,-5.35583 z m 7.06482,-10.75745 0,0 z"
                   style="font-size:31.25px;stroke:#000000"
                   id="path4892" />
                <path
                   d="m 369.99014,453.35199 q -0.47302,-0.27466 -1.03759,-0.39673 -0.54932,-0.13733 -1.22071,-0.13733 -2.38037,0 -3.66211,1.5564 -1.26648,1.54114 -1.26648,4.44031 l 0,9.00268 -2.82287,0 0,-17.08984 2.82287,0 0,2.65503 q 0.88501,-1.5564 2.30408,-2.30408 1.41907,-0.76294 3.44849,-0.76294 0.28991,0 0.64087,0.0458 0.35095,0.0305 0.77819,0.10681 l 0.0153,2.88391 z"
                   style="font-size:31.25px;stroke:#000000"
                   id="path4894" />
              </g>
            </g>
            <path
               style="fill:#80b3ff;stroke:#000000"
               d="m 422.85715,349.50504 205.71428,0 0,205.71427 -205.71428,0 z"
               id="rect3344-9-9-8" />
          </g>
          <g
             style="font-style:normal;font-weight:normal;font-size:17.30285263px;line-height:125%;font-family:sans-serif;letter-spacing:0px;word-spacing:0px;fill:#000000;fill-opacity:1;stroke:#000000;stroke-width:0.55369133px;stroke-linecap:butt;stroke-linejoin:miter;stroke-opacity:1"
             id="text3346-2-8-7">
            <path
               d="m 487.98809,439.88233 q 0.54916,0.18587 1.06453,0.79417 0.52382,0.6083 1.04763,1.67283 l 1.73198,3.44706 -1.83336,0 -1.61369,-3.23584 q -0.62521,-1.2673 -1.21661,-1.68128 -0.58296,-0.41399 -1.5968,-0.41399 l -1.8587,0 0,5.33111 -1.70663,0 0,-12.61385 3.85259,0 q 2.16285,0 3.22738,0.90401 1.06454,0.904 1.06454,2.72891 0,1.19126 -0.55762,1.97699 -0.54916,0.78572 -1.60524,1.08988 z m -4.27502,-5.29731 0,4.47779 2.14596,0 q 1.2335,0 1.8587,-0.56606 0.63365,-0.57451 0.63365,-1.68129 0,-1.10677 -0.63365,-1.66438 -0.6252,-0.56606 -1.8587,-0.56606 l -2.14596,0 z"
               style="stroke-width:0.55369133"
               id="path4898" />
            <path
               d="m 501.28628,440.6765 0,0.76038 -7.14757,0 q 0.10139,1.60524 0.96315,2.45011 0.87021,0.83642 2.41632,0.83642 0.89555,0 1.73197,-0.21967 0.84487,-0.21966 1.67284,-0.65899 l 0,1.47006 q -0.83642,0.35485 -1.71508,0.54072 -0.87866,0.18587 -1.78267,0.18587 -2.26424,0 -3.59068,-1.31799 -1.31799,-1.31799 -1.31799,-3.56534 0,-2.32338 1.2504,-3.68361 1.25885,-1.36868 3.38791,-1.36868 1.9094,0 3.01617,1.2335 1.11523,1.22506 1.11523,3.33722 z m -1.55456,-0.45623 q -0.0169,-1.27575 -0.71813,-2.03612 -0.69279,-0.76038 -1.84181,-0.76038 -1.30109,0 -2.08682,0.73503 -0.77727,0.73503 -0.89556,2.06992 l 5.54232,-0.008 z m -1.49541,-8.26279 1.68128,0 -2.75426,3.1767 -1.29264,0 2.36562,-3.1767 z"
               style="stroke-width:0.55369133"
               id="path4900" />
            <path
               d="m 510.64739,436.69718 0,1.45317 q -0.659,-0.36329 -1.32644,-0.54071 -0.65899,-0.18587 -1.33489,-0.18587 -1.51231,0 -2.34872,0.96314 -0.83642,0.9547 -0.83642,2.68668 0,1.73197 0.83642,2.69512 0.83641,0.9547 2.34872,0.9547 0.6759,0 1.33489,-0.17742 0.66744,-0.18588 1.32644,-0.54917 l 0,1.43627 q -0.65055,0.30416 -1.35179,0.45623 -0.69279,0.15208 -1.47851,0.15208 -2.13751,0 -3.39636,-1.34334 -1.25885,-1.34334 -1.25885,-3.62447 0,-2.31494 1.2673,-3.64138 1.27574,-1.32643 3.48929,-1.32643 0.71814,0 1.40248,0.15207 0.68434,0.14363 1.32644,0.43933 z"
               style="stroke-width:0.55369133"
               id="path4902" />
            <path
               d="m 521.46167,440.6765 0,0.76038 -7.14756,0 q 0.10138,1.60524 0.96314,2.45011 0.87022,0.83642 2.41632,0.83642 0.89556,0 1.73198,-0.21967 0.84486,-0.21966 1.67283,-0.65899 l 0,1.47006 q -0.83642,0.35485 -1.71508,0.54072 -0.87866,0.18587 -1.78266,0.18587 -2.26424,0 -3.59068,-1.31799 -1.318,-1.31799 -1.318,-3.56534 0,-2.32338 1.25041,-3.68361 1.25885,-1.36868 3.38791,-1.36868 1.9094,0 3.01617,1.2335 1.11522,1.22506 1.11522,3.33722 z m -1.55455,-0.45623 q -0.0169,-1.27575 -0.71814,-2.03612 -0.69279,-0.76038 -1.8418,-0.76038 -1.3011,0 -2.08682,0.73503 -0.77728,0.73503 -0.89556,2.06992 l 5.54232,-0.008 z"
               style="stroke-width:0.55369133"
               id="path4904" />
            <path
               d="m 525.51703,444.37701 0,5.01851 -1.563,0 0,-13.06163 1.563,0 0,1.43627 q 0.49002,-0.84486 1.2335,-1.2504 0.75193,-0.41398 1.79112,-0.41398 1.72352,0 2.7965,1.36868 1.08143,1.36868 1.08143,3.59913 0,2.23044 -1.08143,3.59913 -1.07298,1.36868 -2.7965,1.36868 -1.03919,0 -1.79112,-0.40554 -0.74348,-0.41398 -1.2335,-1.25885 z m 5.28886,-3.30342 q 0,-1.71508 -0.70969,-2.68668 -0.70124,-0.98004 -1.93474,-0.98004 -1.23351,0 -1.94319,0.98004 -0.70124,0.9716 -0.70124,2.68668 0,1.71507 0.70124,2.69512 0.70968,0.97159 1.94319,0.97159 1.2335,0 1.93474,-0.97159 0.70969,-0.98005 0.70969,-2.69512 z"
               style="stroke-width:0.55369133"
               id="path4906" />
            <path
               d="m 536.53408,433.64722 0,2.68667 3.20204,0 0,1.20816 -3.20204,0 0,5.13678 q 0,1.15747 0.3126,1.48697 0.32105,0.32949 1.29265,0.32949 l 1.59679,0 0,1.3011 -1.59679,0 q -1.79957,0 -2.48391,-0.66745 -0.68434,-0.67589 -0.68434,-2.45011 l 0,-5.13678 -1.14057,0 0,-1.20816 1.14057,0 0,-2.68667 1.563,0 z"
               style="stroke-width:0.55369133"
               id="path4908" />
            <path
               d="m 549.88296,440.6765 0,0.76038 -7.14757,0 q 0.10139,1.60524 0.96315,2.45011 0.87021,0.83642 2.41632,0.83642 0.89556,0 1.73197,-0.21967 0.84487,-0.21966 1.67284,-0.65899 l 0,1.47006 q -0.83642,0.35485 -1.71508,0.54072 -0.87866,0.18587 -1.78267,0.18587 -2.26424,0 -3.59068,-1.31799 -1.31799,-1.31799 -1.31799,-3.56534 0,-2.32338 1.2504,-3.68361 1.25885,-1.36868 3.38792,-1.36868 1.90939,0 3.01617,1.2335 1.11522,1.22506 1.11522,3.33722 z m -1.55455,-0.45623 q -0.0169,-1.27575 -0.71814,-2.03612 -0.69279,-0.76038 -1.84181,-0.76038 -1.30109,0 -2.08682,0.73503 -0.77727,0.73503 -0.89555,2.06992 l 5.54232,-0.008 z"
               style="stroke-width:0.55369133"
               id="path4910" />
            <path
               d="m 552.27393,442.06208 0,-5.72819 1.55455,0 0,5.66905 q 0,1.34334 0.52382,2.01923 0.52382,0.66744 1.57145,0.66744 1.25885,0 1.98544,-0.80262 0.73503,-0.80262 0.73503,-2.1882 l 0,-5.3649 1.55455,0 0,9.4625 -1.55455,0 0,-1.45317 q -0.56606,0.86176 -1.31799,1.28419 -0.74348,0.41399 -1.73198,0.41399 -1.63059,0 -2.47545,-1.01384 -0.84487,-1.01384 -0.84487,-2.96548 z m 3.91173,-5.9563 0,0 z"
               style="stroke-width:0.55369133"
               id="path4912" />
            <path
               d="m 568.90089,437.78706 q -0.26191,-0.15208 -0.57451,-0.21967 -0.30415,-0.076 -0.67589,-0.076 -1.31799,0 -2.02768,0.86176 -0.70124,0.85331 -0.70124,2.45856 l 0,4.98471 -1.563,0 0,-9.4625 1.563,0 0,1.47007 q 0.49002,-0.86177 1.27575,-1.27575 0.78572,-0.42243 1.90939,-0.42243 0.16053,0 0.35485,0.0253 0.19432,0.0169 0.43088,0.0591 l 0.008,1.5968 z"
               style="stroke-width:0.55369133"
               id="path4914" />
          </g>
        </g>
        <g
           transform="matrix(0.5536913,0,0,0.5536913,-32.310037,190.20748)"
           id="g3378-9"
           style="stroke:#000000">
          <g
             id="g3387-3"
             style="stroke:#000000">
            <g
               id="g3373-6"
               transform="translate(14.88312,-4.1471958)"
               style="stroke:#000000">
              <path
                 style="fill:#ffff00;stroke:#000000"
                 d="m 195.71425,353.79074 205.71428,0 0,205.71428 -205.71428,0 z"
                 id="rect3344-6" />
              <g
                 style="font-style:normal;font-weight:normal;font-size:40px;line-height:125%;font-family:sans-serif;letter-spacing:0px;word-spacing:0px;fill:#000000;fill-opacity:1;stroke:#000000;stroke-width:1px;stroke-linecap:butt;stroke-linejoin:miter;stroke-opacity:1"
                 id="text3346-8">
                <path
                   d="m 227.15262,445.03595 14.4043,0 0,2.59399 -11.32203,0 0,6.74439 10.849,0 0,2.59399 -10.849,0 0,8.25501 11.59668,0 0,2.59399 -14.67895,0 0,-22.78137 z"
                   style="font-size:31.25px;stroke:#000000"
                   id="path4918" />
                <path
                   d="m 260.1116,454.00812 q 1.05286,-1.89209 2.5177,-2.79236 1.46485,-0.90027 3.44849,-0.90027 2.67029,0 4.11987,1.87683 1.44959,1.86157 1.44959,5.31006 l 0,10.31494 -2.82288,0 0,-10.22339 q 0,-2.45666 -0.86975,-3.64685 -0.86975,-1.19018 -2.65503,-1.19018 -2.18201,0 -3.44849,1.44958 -1.26647,1.44959 -1.26647,3.95203 l 0,9.65881 -2.82288,0 0,-10.22339 q 0,-2.47192 -0.86975,-3.64685 -0.86975,-1.19018 -2.68555,-1.19018 -2.15149,0 -3.41797,1.46484 -1.26648,1.44959 -1.26648,3.93677 l 0,9.65881 -2.82287,0 0,-17.08984 2.82287,0 0,2.65503 q 0.96131,-1.57166 2.30408,-2.31934 1.34277,-0.74768 3.18909,-0.74768 1.86157,0 3.15857,0.94605 1.31225,0.94604 1.93786,2.74658 z"
                   style="font-size:31.25px;stroke:#000000"
                   id="path4920" />
                <path
                   d="m 291.8804,458.5705 0,1.37329 -12.90893,0 q 0.1831,2.89917 1.7395,4.42505 1.57165,1.51062 4.36401,1.51062 1.61743,0 3.12805,-0.39673 1.52588,-0.39673 3.02124,-1.19019 l 0,2.65503 q -1.51062,0.64087 -3.09753,0.97656 -1.58691,0.3357 -3.2196,0.3357 -4.08936,0 -6.48499,-2.38037 -2.38037,-2.38038 -2.38037,-6.43921 0,-4.19617 2.2583,-6.65284 2.27356,-2.47192 6.11877,-2.47192 3.44849,0 5.44739,2.22778 2.01416,2.21253 2.01416,6.02723 z m -2.80762,-0.82398 q -0.0305,-2.30408 -1.29699,-3.67737 -1.25122,-1.37329 -3.32642,-1.37329 -2.34985,0 -3.76892,1.32752 -1.40381,1.32751 -1.61743,3.7384 l 10.00976,-0.0153 z"
                   style="font-size:31.25px;stroke:#000000"
                   id="path4922" />
                <path
                   d="m 299.26566,445.87518 0,4.8523 5.78308,0 0,2.182 -5.78308,0 0,9.27735 q 0,2.09045 0.56457,2.68555 0.57983,0.59509 2.3346,0.59509 l 2.88391,0 0,2.34985 -2.88391,0 q -3.25013,0 -4.48609,-1.20544 -1.23596,-1.22071 -1.23596,-4.42505 l 0,-9.27735 -2.05994,0 0,-2.182 2.05994,0 0,-4.8523 2.82288,0 z"
                   style="font-size:31.25px;stroke:#000000"
                   id="path4924" />
                <path
                   d="m 311.53372,445.87518 0,4.8523 5.78308,0 0,2.182 -5.78308,0 0,9.27735 q 0,2.09045 0.56458,2.68555 0.57983,0.59509 2.33459,0.59509 l 2.88391,0 0,2.34985 -2.88391,0 q -3.25012,0 -4.48608,-1.20544 -1.23596,-1.22071 -1.23596,-4.42505 l 0,-9.27735 -2.05994,0 0,-2.182 2.05994,0 0,-4.8523 2.82287,0 z"
                   style="font-size:31.25px;stroke:#000000"
                   id="path4926" />
                <path
                   d="m 335.64261,458.5705 0,1.37329 -12.90894,0 q 0.18311,2.89917 1.73951,4.42505 1.57165,1.51062 4.36401,1.51062 1.61743,0 3.12805,-0.39673 1.52588,-0.39673 3.02124,-1.19019 l 0,2.65503 q -1.51062,0.64087 -3.09753,0.97656 -1.58692,0.3357 -3.21961,0.3357 -4.08935,0 -6.48498,-2.38037 -2.38037,-2.38038 -2.38037,-6.43921 0,-4.19617 2.2583,-6.65284 2.27356,-2.47192 6.11877,-2.47192 3.44849,0 5.44739,2.22778 2.01416,2.21253 2.01416,6.02723 z m -2.80762,-0.82398 q -0.0305,-2.30408 -1.297,-3.67737 -1.25122,-1.37329 -3.32641,-1.37329 -2.34986,0 -3.76892,1.32752 -1.40381,1.32751 -1.61743,3.7384 l 10.00976,-0.0153 z"
                   style="font-size:31.25px;stroke:#000000"
                   id="path4928" />
                <path
                   d="m 339.96085,461.07294 0,-10.34546 2.80761,0 0,10.23865 q 0,2.42614 0.94605,3.64685 0.94604,1.20544 2.83813,1.20544 2.27356,0 3.58582,-1.44958 1.32751,-1.44959 1.32751,-3.95203 l 0,-9.68933 2.80762,0 0,17.08984 -2.80762,0 0,-2.62451 q -1.02234,1.5564 -2.38037,2.31934 -1.34277,0.74768 -3.12805,0.74768 -2.94495,0 -4.47083,-1.83106 -1.52587,-1.83105 -1.52587,-5.35583 z m 7.06482,-10.75745 0,0 z"
                   style="font-size:31.25px;stroke:#000000"
                   id="path4930" />
                <path
                   d="m 369.99014,453.35199 q -0.47302,-0.27466 -1.03759,-0.39673 -0.54932,-0.13733 -1.22071,-0.13733 -2.38037,0 -3.66211,1.5564 -1.26648,1.54114 -1.26648,4.44031 l 0,9.00268 -2.82287,0 0,-17.08984 2.82287,0 0,2.65503 q 0.88501,-1.5564 2.30408,-2.30408 1.41907,-0.76294 3.44849,-0.76294 0.28991,0 0.64087,0.0458 0.35095,0.0305 0.77819,0.10681 l 0.0153,2.88391 z"
                   style="font-size:31.25px;stroke:#000000"
                   id="path4932" />
              </g>
            </g>
            <path
               style="fill:#ffff00;stroke:#000000"
               d="m 422.85715,349.50504 205.71428,0 0,205.71427 -205.71428,0 z"
               id="rect3344-9-8" />
          </g>
          <g
             style="font-style:normal;font-weight:normal;font-size:31.25px;line-height:125%;font-family:sans-serif;letter-spacing:0px;word-spacing:0px;fill:#000000;fill-opacity:1;stroke:#000000;stroke-width:1px;stroke-linecap:butt;stroke-linejoin:miter;stroke-opacity:1"
             id="text3346-2-5">
            <path
               d="m 458.04919,450.92786 q 0.99183,0.33569 1.92261,1.43432 0.94605,1.09864 1.89209,3.02124 l 3.12805,6.22559 -3.31115,0 -2.91443,-5.84412 q -1.12915,-2.28882 -2.19727,-3.0365 -1.05285,-0.74768 -2.88391,-0.74768 l -3.35693,0 0,9.6283 -3.08228,0 0,-22.78137 6.95801,0 q 3.90625,0 5.82886,1.63269 1.9226,1.63269 1.9226,4.92859 0,2.15149 -1.00708,3.57055 -0.99182,1.41907 -2.89917,1.96839 z m -7.72094,-9.56726 0,8.08715 3.87573,0 q 2.22778,0 3.35693,-1.02233 1.14441,-1.0376 1.14441,-3.0365 0,-1.99891 -1.14441,-3.00599 -1.12915,-1.02233 -3.35693,-1.02233 l -3.87573,0 z"
               style=""
               id="path4936" />
            <path
               d="m 482.06653,452.36218 0,1.37329 -12.90894,0 q 0.18311,2.89917 1.7395,4.42505 1.57166,1.51062 4.36402,1.51062 1.61743,0 3.12805,-0.39673 1.52588,-0.39672 3.02124,-1.19018 l 0,2.65503 q -1.51062,0.64087 -3.09753,0.97656 -1.58692,0.33569 -3.21961,0.33569 -4.08935,0 -6.48498,-2.38037 -2.38037,-2.38037 -2.38037,-6.43921 0,-4.19616 2.2583,-6.65283 2.27356,-2.47192 6.11877,-2.47192 3.44849,0 5.44739,2.22778 2.01416,2.21253 2.01416,6.02722 z m -2.80762,-0.82397 q -0.0305,-2.30408 -1.297,-3.67737 -1.25122,-1.37329 -3.32641,-1.37329 -2.34986,0 -3.76892,1.32751 -1.40381,1.32752 -1.61743,3.73841 l 10.00976,-0.0153 z m -2.7008,-14.9231 3.03649,0 -4.97436,5.73731 -2.3346,0 4.27247,-5.73731 z"
               style=""
               id="path4938" />
            <path
               d="m 498.97327,445.17529 0,2.62451 q -1.19019,-0.65612 -2.39563,-0.97656 -1.19019,-0.33569 -2.41089,-0.33569 -2.73133,0 -4.24195,1.7395 -1.51062,1.72424 -1.51062,4.8523 0,3.12805 1.51062,4.86755 1.51062,1.72424 4.24195,1.72424 1.2207,0 2.41089,-0.32043 1.20544,-0.3357 2.39563,-0.99182 l 0,2.59399 q -1.17493,0.54932 -2.44141,0.82398 -1.25122,0.27465 -2.67029,0.27465 -3.86047,0 -6.13403,-2.42614 -2.27356,-2.42615 -2.27356,-6.54602 0,-4.18091 2.28882,-6.57654 2.30407,-2.39563 6.30188,-2.39563 1.29699,0 2.53296,0.27466 1.23596,0.2594 2.39563,0.79345 z"
               style=""
               id="path4940" />
            <path
               d="m 518.50452,452.36218 0,1.37329 -12.90894,0 q 0.18311,2.89917 1.7395,4.42505 1.57166,1.51062 4.36402,1.51062 1.61743,0 3.12805,-0.39673 1.52588,-0.39672 3.02124,-1.19018 l 0,2.65503 q -1.51062,0.64087 -3.09754,0.97656 -1.58691,0.33569 -3.2196,0.33569 -4.08936,0 -6.48499,-2.38037 -2.38037,-2.38037 -2.38037,-6.43921 0,-4.19616 2.2583,-6.65283 2.27356,-2.47192 6.11878,-2.47192 3.44849,0 5.44739,2.22778 2.01416,2.21253 2.01416,6.02722 z m -2.80762,-0.82397 q -0.0305,-2.30408 -1.297,-3.67737 -1.25122,-1.37329 -3.32641,-1.37329 -2.34986,0 -3.76892,1.32751 -1.40381,1.32752 -1.61744,3.73841 l 10.00977,-0.0153 z"
               style=""
               id="path4942" />
            <path
               d="m 525.82874,459.04553 0,9.06372 -2.82288,0 0,-23.59008 2.82288,0 0,2.59399 q 0.88501,-1.52588 2.22778,-2.2583 1.35803,-0.74768 3.23486,-0.74768 3.11279,0 5.05066,2.47192 1.95313,2.47193 1.95313,6.50025 0,4.02832 -1.95313,6.50024 -1.93787,2.47192 -5.05066,2.47192 -1.87683,0 -3.23486,-0.73242 -1.34277,-0.74768 -2.22778,-2.27356 z m 9.552,-5.96618 q 0,-3.09754 -1.28174,-4.8523 -1.26648,-1.77002 -3.49426,-1.77002 -2.22779,0 -3.50953,1.77002 -1.26647,1.75476 -1.26647,4.8523 0,3.09753 1.26647,4.86755 1.28174,1.75476 3.50953,1.75476 2.22778,0 3.49426,-1.75476 1.28174,-1.77002 1.28174,-4.86755 z"
               style=""
               id="path4944" />
            <path
               d="m 545.7262,439.66687 0,4.8523 5.78308,0 0,2.182 -5.78308,0 0,9.27735 q 0,2.09045 0.56457,2.68554 0.57984,0.5951 2.3346,0.5951 l 2.88391,0 0,2.34985 -2.88391,0 q -3.25013,0 -4.48609,-1.20545 -1.23596,-1.2207 -1.23596,-4.42504 l 0,-9.27735 -2.05994,0 0,-2.182 2.05994,0 0,-4.8523 2.82288,0 z"
               style=""
               id="path4946" />
            <path
               d="m 569.83508,452.36218 0,1.37329 -12.90893,0 q 0.1831,2.89917 1.7395,4.42505 1.57165,1.51062 4.36401,1.51062 1.61743,0 3.12805,-0.39673 1.52588,-0.39672 3.02125,-1.19018 l 0,2.65503 q -1.51063,0.64087 -3.09754,0.97656 -1.58691,0.33569 -3.2196,0.33569 -4.08936,0 -6.48499,-2.38037 -2.38037,-2.38037 -2.38037,-6.43921 0,-4.19616 2.2583,-6.65283 2.27356,-2.47192 6.11878,-2.47192 3.44848,0 5.44738,2.22778 2.01416,2.21253 2.01416,6.02722 z m -2.80761,-0.82397 q -0.0305,-2.30408 -1.297,-3.67737 -1.25122,-1.37329 -3.32642,-1.37329 -2.34985,0 -3.76892,1.32751 -1.40381,1.32752 -1.61743,3.73841 l 10.00977,-0.0153 z"
               style=""
               id="path4948" />
            <path
               d="m 574.15332,454.86462 0,-10.34545 2.80762,0 0,10.23864 q 0,2.42615 0.94604,3.64685 0.94605,1.20545 2.83814,1.20545 2.27356,0 3.58581,-1.44959 1.32752,-1.44958 1.32752,-3.95202 l 0,-9.68933 2.80761,0 0,17.08984 -2.80761,0 0,-2.62451 q -1.02234,1.55639 -2.38037,2.31933 -1.34278,0.74768 -3.12806,0.74768 -2.94494,0 -4.47082,-1.83105 -1.52588,-1.83106 -1.52588,-5.35584 z m 7.06482,-10.75744 0,0 z"
               style=""
               id="path4950" />
            <path
               d="m 604.18262,447.14368 q -0.47303,-0.27466 -1.0376,-0.39673 -0.54932,-0.13733 -1.2207,-0.13733 -2.38037,0 -3.66211,1.5564 -1.26648,1.54113 -1.26648,4.4403 l 0,9.00269 -2.82288,0 0,-17.08984 2.82288,0 0,2.65502 q 0.88501,-1.55639 2.30407,-2.30407 1.41907,-0.76294 3.44849,-0.76294 0.28992,0 0.64087,0.0458 0.35095,0.0305 0.7782,0.10682 l 0.0153,2.88391 z"
               style=""
               id="path4952" />
          </g>
        </g>
      </g>
    </g>
    <g
       id="g6118">
      <path
         inkscape:connector-curvature="0"
         id="path5005"
         d="m 121.14098,471.15607 c 0,-204.28572 121.42857,-180.00001 121.42857,-180.00001"
         style="fill:none;fill-rule:evenodd;stroke:#000000;stroke-width:2.5;stroke-linecap:butt;stroke-linejoin:miter;stroke-miterlimit:4;stroke-dasharray:none;stroke-opacity:1;marker-start:url(#marker4680-0)" />
      <path
         sodipodi:nodetypes="cc"
         inkscape:connector-curvature="0"
         id="path5660"
         d="m 232.85713,470.93362 c -73.27302,-127.87152 -22.18138,-136.11632 28.57143,-160"
         style="fill:none;fill-rule:evenodd;stroke:#000000;stroke-width:2.5;stroke-linecap:butt;stroke-linejoin:miter;stroke-miterlimit:4;stroke-dasharray:none;stroke-opacity:1;marker-end:url(#Arrow1Lend)" />
    </g>
    <path
       style="fill:none;fill-rule:evenodd;stroke:#000000;stroke-width:2.5;stroke-linecap:butt;stroke-linejoin:miter;stroke-miterlimit:4;stroke-dasharray:none;stroke-opacity:1;marker-end:url(#marker6626)"
       d="M 119.99999,728.07648 C 265.32974,571.37396 232.67649,551.9844 231.42856,539.50505"
       id="path6606"
       inkscape:connector-curvature="0"
       sodipodi:nodetypes="cc" />
    <path
       style="fill:none;fill-rule:evenodd;stroke:#000000;stroke-width:2.5;stroke-linecap:butt;stroke-linejoin:miter;stroke-miterlimit:4;stroke-dasharray:none;stroke-opacity:1;marker-end:url(#marker6862)"
       d="m 119.99999,539.50505 c 143.76636,61.59186 116.70993,128.55662 114.28572,184.28571"
       id="path7430"
       inkscape:connector-curvature="0"
       sodipodi:nodetypes="cc" />
    <rect
       style="fill:#ffaaaa;stroke:#000000;stroke-width:1.0628289;stroke-miterlimit:4;stroke-dasharray:none"
       id="rect7876"
       width="132.86572"
       height="21.437172"
       x="251.09868"
       y="235.92932" />
    <path
       style="fill:none;fill-rule:evenodd;stroke:#000000;stroke-width:1px;stroke-linecap:butt;stroke-linejoin:miter;stroke-opacity:1"
       d="m 267.94295,236.41147 0,20.45558"
       id="path7878"
       inkscape:connector-curvature="0" />
    <path
       style="fill:none;fill-rule:evenodd;stroke:#000000;stroke-width:1px;stroke-linecap:butt;stroke-linejoin:miter;stroke-opacity:1"
       d="m 286.1257,236.2852 0,20.45558"
       id="path7878-7"
       inkscape:connector-curvature="0" />
    <path
       style="fill:none;fill-rule:evenodd;stroke:#000000;stroke-width:1px;stroke-linecap:butt;stroke-linejoin:miter;stroke-opacity:1"
       d="m 306.07622,236.2852 0,20.45558"
       id="path7878-74"
       inkscape:connector-curvature="0" />
    <path
       style="fill:none;fill-rule:evenodd;stroke:#000000;stroke-width:1px;stroke-linecap:butt;stroke-linejoin:miter;stroke-opacity:1"
       d="m 326.78434,236.28521 0,20.45558"
       id="path7878-77"
       inkscape:connector-curvature="0" />
    <path
       style="fill:none;fill-rule:evenodd;stroke:#000000;stroke-width:1px;stroke-linecap:butt;stroke-linejoin:miter;stroke-opacity:1"
       d="m 346.73486,236.28521 0,20.45558"
       id="path7878-6"
       inkscape:connector-curvature="0" />
    <path
       style="fill:none;fill-rule:evenodd;stroke:#000000;stroke-width:1px;stroke-linecap:butt;stroke-linejoin:miter;stroke-opacity:1"
       d="m 365.17014,236.2852 0,20.45558"
       id="path7878-0"
       inkscape:connector-curvature="0" />
  </g>
</svg>
